Thoughts and Advice on Writing your BAP - 18 Geographically Clustered/Nested Data
…
Second, you do have to pick, and motivate the use of, a particular country to focus on and discuss how that decision influences what we learn about your question. In the former case, this could very well be part of the set up of your paper. For instance, if you begin your paper with an anecdote involving former German PM Angela Merkel, then it would seem obvious and non-controversial to use data focused on Germany in particular. You would still want to reflect in the discussion on whether the patterns you saw in the data might “travel” to other contexts (other times within Germany, other places besides) - if so, why do you think that? ; if not, in what ways would things be different and why? But, those are discussions you should be having anyways (see Chapter 6). At the same time, there is some value in having a much more varied set of countries in the analyses as this would speak to such a concern to a certain degree at least in terms of geography.

18.2.2 Fixed Effects + Clustered Standard Errors

Here, your main IV varies at the individual level and you want to use all the data before you. The simplest solution is to use “country fixed effects” and “clustered standard errors”.

“Fixed effects” is just a fancy sounding term for: “Include a factor variable for cluster in your model”. The cluster in this example is country (respondents in countries). So, step one would be to convert the variable in the dataset with data on what cluster each observation resides within into a factor variable and include it in the model. I already have this variable factorized (see earlier syntax), so here are the model results:

#run our model
model_all_indiv <- lm(Q252 ~ Q50 + country_name, data = wvs)

#summary of coefficients
tidy(model_all_indiv)

# A tibble: 48 × 5
   term                   estimate std.error statistic   p.value
   <chr>                     <dbl>     <dbl>     <dbl>     <dbl>
 1 (Intercept)              4.59     0.0821     55.9   0        
 2 Q50                      0.182    0.00410    44.3   0        
 3 country_nameArgentina   -0.265    0.110      -2.41  1.60e-  2
 4 country_nameAustralia   -0.0539   0.0970     -0.556 5.79e-  1
 5 country_nameBangladesh   0.907    0.105       8.64  5.76e- 18
 6 country_nameBolivia     -0.217    0.0949     -2.29  2.23e-  2
 7 country_nameBrazil      -3.11     0.0977    -31.8   4.15e-220
 8 country_nameMyanmar      0.852    0.105       8.12  4.76e- 16
 9 country_nameChile       -0.220    0.111      -1.98  4.77e-  2
10 country_nameChina        1.79     0.0895     19.9   3.09e- 88
# ℹ 38 more rows
…
To prepare our data we’ll use group_by() to calculate the mean value of both variables by country. The unemployment variable is a constant within each country (i.e., all observations in Argentina have the same value [9.79], all observations in China have a value of 4.32, etc.). Taking the mean of this variable is the simplest way of porting over those values to our new dataset.

#Aggregate the data 
aggregated <- wvs |> 
  group_by(country_name) |>
  summarize(reg_satis = mean(Q252, na.rm = T), 
            unemploy = mean(unemploytotal, na.rm = T))

#Take a look
aggregated

# A tibble: 48 × 3
   country_name reg_satis unemploy
   <fct>            <dbl>    <dbl>
 1 Andorra           5.78   NaN   
 2 Argentina         5.41     9.79
 3 Australia         5.74     5.27
 4 Bangladesh        6.76     4.19
 5 Bolivia           5.55     3.5 
 6 Brazil            2.59    12.1 
 7 Myanmar           6.57     1.58
 8 Chile             5.48     7.09
 9 China             7.55     4.32
10 Taiwan ROC        5.11   NaN   
# ℹ 38 more rows
…
